{
  "defaultSeverity": "warning",
  "extends": ["tslint:latest", "tslint-config-prettier"],
  "linterOptions": {
    "exclude": ["node_modules/**"]
  },
  "rules": {
    "quotemark": [true, "single"],
    "indent": [true, "spaces", 2],
    "interface-name": false,
    "ordered-imports": false,
    "object-literal-sort-keys": false,
    "no-consecutive-blank-lines": false,
    "semicolon": false,
    "trailing-comma": true,
    "no-console": false,
    "member-access": false,
    "member-ordering": false,
    "align": false,
    "misses-props": false,
    "eofline": false,
    "triple-equals": false,
    "no-shadowed-variable": false,
    "no-implicit-dependencies": false,
    "no-submodule-imports": false,
    "no-relative-imports": [true, "allow-siblings"],
    "no-this-assignment": false,
    "no-eval": false
  }
}
